1 10 20
100 200 125
201 210 89
900 1000 174
1 1 1
14999 19999 279
15000 19999 279
15000 20000 279
77777 88888 338
88888 99999 333
92571 935488 525
231658 481077 449
57090 996248 525
360715 758039 509
591958 327280 470
693409 789791 504
182271 346479 443
185464 618628 470
850040 942935 507
12306 690799 509
518711 657589 509
251473 583637 470
119252 235933 443
487904 138679 449
363267 167097 443
343679 792302 509
752730 665392 504
595698 215832 470
356206 196369 443
407895 677543 509
24195 989556 525
173496 146416 383
978148 93702 525
577948 587438 434
91195 205320 383
190797 764142 509
464193 245463 449
527700 319687 470
749622 615244 509
779849 35297 509
173248 724654 509
715726 936378 525
148449 785590 509
131032 979748 525
717690 264881 509
84308 569059 470
817972 685048 504
410942 31947 449
744826 506679 509
303389 532341 470
493131 828864 509
516972 47875 470
464609 817630 509
847827 28755 525
501134 348536 449
871066 434274 525
796469 978853 525
361022 494394 449
626236 582062 447
82853 233429 443
283275 309010 389
158154 773321 509
418100 785909 509
917563 818757 525
850090 47432 525
564423 686528 509
645386 891543 525
751944 96245 509
317215 64492 443
392370 375545 436
42069 69420 340
549989 613534 434
807584 112248 509
220450 110999 386
142942 464338 449
711540 730369 411
276356 814498 509
59732 79891 351
618314 512335 452
33432 968356 525
121384 118163 336
814971 916338 525
803369 692540 504
212678 570574 470
848696 182681 525
701479 647305 442
875009 167261 525
660964 288427 509
59695 9382 340
459347 479921 444
821882 153450 509
170692 148624 383
39216 486088 449
84808 82335 320
168218 362670 443
770758 947110 525
509722 714821 509
794138 371032 509
902364 905949 383
924023 794028 525
200439 453124 449
20532 941221 525
141513 341413 443
544187 853037 525
291051 958243 525
730242 841347 525
622326 442048 470
281623 102429 443
864171 561555 525
591279 249410 470
23490 509093 449
262479 768015 509
742845 364947 509
818383 131095 509
240817 875914 525
954005 526864 525
420489 575600 470
741468 621618 509
966935 161518 525
204163 331847 443
592721 14679 470
132040 124700 344
139539 231711 443
67912 129954 354
776386 130022 509
530501 69209 470
537642 114767 470
115046 967377 525
719286 174190 509
545248 857633 525
232921 377216 441
981117 239073 525
221418 597151 470
185775 157967 370
146227 116362 375
951844 604177 525
212318 800876 509
118233 237243 443
480142 401720 449
897228 872302 445
346991 427580 449
103979 352973 443
402046 65129 443
561594 307570 470
664630 840814 525
962764 596368 525
514288 484334 470
822925 771455 468
661020 799256 504
601169 95310 470
760637 666391 504
80600 74183 351
478685 768018 509
234997 768795 509
937911 515118 525
591574 585548 359
774807 131319 509
414564 6126 449
163251 774564 509
593125 72474 470
718409 179862 509
859673 381203 525
714957 750869 424
820115 391508 509
542008 636804 509
430077 638322 509
672787 573594 509
748897 514220 509
756265 277012 509
11634 593688 470
528285 641080 509
949875 958252 414
168836 127547 383
958256 915852 507
622214 617344 372
766428 725949 424
705471 982017 525
458115 244034 449
28855 232936 443
412417 126274 449
345556 226489 443
220238 648221 509
739222 43235 509
457954 83661 449
133447 626007 470
32699 136980 354
487031 581705 470
351924 345595 441
239693 247796 368
103330 720235 509
393734 966919 525
813746 104855 509
15539 914258 525
924401 922384 445
844270 429293 525
999172 874365 507
373568 258520 441
834634 75216 509
250412 994998 525
964965 632878 525
989753 903140 507
333145 346848 441
355511 887937 525
55378 962445 525
582324 400941 470
584012 47469 470
950119 59020 525
272675 945180 525
118300 495156 449
736421 228706 509
403093 249456 441
531976 479230 470
582349 629335 509
694701 377552 509
634867 7277 509
657017 370162 509
489764 234706 449
429029 572795 470
898308 258542 525
513582 144450 470
461815 430550 444
527221 992635 525
809712 420301 509
132274 312179 443
997383 177768 525
670985 830650 504
37302 35916 262
476272 816818 509
173990 117749 383
399863 125169 443
344894 332406 366
671101 334435 509
417568 801026 509
724782 745266 424
18494 724930 509
773555 621913 509
716051 287287 509
402146 727744 509
979140 36489 525
973697 778979 525
278791 194598 443
965929 49244 525
357346 266067 441
918234 320694 525
297678 482236 449
897030 705195 525
173731 502148 449
982409 170179 525
541923 154759 470
219747 202158 386
669293 978202 525
681088 741170 504
228225 773162 509
599980 959932 525
794552 351172 509
89200 863461 525
519371 362855 470
601576 252440 470
827632 995082 525
857581 52302 525
671526 317596 509
387132 72019 443
65928 473393 449
115362 692891 509
441549 164327 449
212569 58949 383
